…
#>  2 panel_description            <chr [1]>
#>  3 n_samples                    <int [1]>
#>  4 sample_groups                <chr [2]>
#>  5 sample_matrices              <chr [2]>
#>  6 analytes                     <chr [3]>
#>  7 targets                      <chr [1]>
#>  8 qualitative_outcomes         <chr [2]>
#>  9 qualitative_comparators      <chr [2]>
#> 10 semiquantitative_outcomes    <chr [5]>
#> 11 semiquantitative_comparators <chr [1]>
#> 12 quantitative_units           <chr [1]>
#> 13 quantitative_comparators     <chr [1]>
# This will be written to excel to facilitate data entry:
print(sample_panel$panel_table)
#> # A tibble: 330 × 9
#>    sample            analyte target group matrix qualitative_res… qualitative_com…
#>    <chr>             <chr>   <chr>  <chr> <chr>  <chr>            <chr>           
#>  1 example_panel_001 IgM     Spike  <NA>  <NA>   <NA>             <NA>            
#>  2 example_panel_001 IgG     Spike  <NA>  <NA>   <NA>             <NA>            
#>  3 example_panel_001 Pan-Ig  Spike  <NA>  <NA>   <NA>             <NA>            
#>  4 example_panel_002 IgM     Spike  <NA>  <NA>   <NA>             <NA>            
#>  5 example_panel_002 IgG     Spike  <NA>  <NA>   <NA>             <NA>            
#>  6 example_panel_002 Pan-Ig  Spike  <NA>  <NA>   <NA>             <NA>            
#>  7 example_panel_003 IgM     Spike  <NA>  <NA>   <NA>             <NA>            
#>  8 example_panel_003 IgG     Spike  <NA>  <NA>   <NA>             <NA>            
#>  9 example_panel_003 Pan-Ig  Spike  <NA>  <NA>   <NA>             <NA>            
#> 10 example_panel_004 IgM     Spike  <NA>  <NA>   <NA>             <NA>            
#> # … with 320 more rows, and 2 more variables: semiquantitative_result <chr>,
#> #   semiquantitative_comparator <chr>
```
…
#>    <chr>                     <list>   
#>  1 evaluation_name           <chr [1]>
#>  2 evaluation_description    <chr [1]>
#>  3 developer                 <chr [1]>
#>  4 assay                     <chr [1]>
#>  5 lot_numbers               <chr [1]>
#>  6 analytes                  <chr [3]>
#>  7 targets                   <chr [1]>
#>  8 qualitative_outcomes      <chr [3]>
#>  9 semiquantitative_outcomes <chr [1]>
#> 10 quantitative_units        <chr [1]>
#> 11 blinded                   <lgl [1]>
# This one is not randomized or blinded, so the IDs match:
print(evaluation_one$sample_blinding)
#> # A tibble: 110 × 2
#>    evaluation_sample_id panel_sample_id  
#>    <chr>                <chr>            
#>  1 example_panel_001    example_panel_001
#>  2 example_panel_002    example_panel_002
#>  3 example_panel_003    example_panel_003
#>  4 example_panel_004    example_panel_004
#>  5 example_panel_005    example_panel_005
#>  6 example_panel_006    example_panel_006
#>  7 example_panel_007    example_panel_007
#>  8 example_panel_008    example_panel_008
#>  9 example_panel_009    example_panel_009
#> 10 example_panel_010    example_panel_010
#> # … with 100 more rows
# This will be written to excel to facilitate data entry:
print(evaluation_one$evaluation_table)
#> # A tibble: 330 × 7
#>    sample            analyte target lot_number datetime_observati… qualitative_res…
#>    <chr>             <chr>   <chr>  <chr>      <dttm>              <chr>           
#>  1 example_panel_001 IgM     Spike  20200101   NA                  <NA>            
#>  2 example_panel_001 IgG     Spike  20200101   NA                  <NA>            
#>  3 example_panel_001 Pan-Ig  Spike  20200101   NA                  <NA>            
#>  4 example_panel_002 IgM     Spike  20200101   NA                  <NA>            
#>  5 example_panel_002 IgG     Spike  20200101   NA                  <NA>            
#>  6 example_panel_002 Pan-Ig  Spike  20200101   NA                  <NA>            
#>  7 example_panel_003 IgM     Spike  20200101   NA                  <NA>            
#>  8 example_panel_003 IgG     Spike  20200101   NA                  <NA>            
#>  9 example_panel_003 Pan-Ig  Spike  20200101   NA                  <NA>            
#> 10 example_panel_004 IgM     Spike  20200101   NA                  <NA>            
#> # … with 320 more rows, and 1 more variable: notes_and_anomalies <chr>
```
